<mxfile host="app.diagrams.net" modified="2023-01-05T09:00:24.255Z" agent="5.0 (Macintosh; Intel Mac OS X 10_15_7) AppleWebKit/537.36 (KHTML, like Gecko) Chrome/108.0.0.0 Safari/537.36" version="20.6.2" etag="v0nK9RhCOs5dSUt-yBYJ" type="gitlab">
  <diagram id="F2ypTBIrwWJexiDiOGYw" name="Page-1">
    <mxGraphModel dx="949" dy="572" grid="1" gridSize="10" guides="1" tooltips="1" connect="1" arrows="1" fold="1" page="1" pageScale="1" pageWidth="850" pageHeight="1100" math="0" shadow="0">
      <root>
        <mxCell id="0" />
        <mxCell id="1" parent="0" />
        <mxCell id="I7xxhmBDHfEutQesb7iw-1" value="Web Frontend" style="rounded=1;whiteSpace=wrap;html=1;fillColor=#dae8fc;strokeColor=#6c8ebf;strokeWidth=2;fontSize=13;shadow=1;" vertex="1" parent="1">
          <mxGeometry x="120" y="55" width="450" height="70" as="geometry" />
        </mxCell>
        <mxCell id="I7xxhmBDHfEutQesb7iw-2" value="Back-office API&amp;nbsp;" style="rounded=1;whiteSpace=wrap;html=1;fillColor=#ffcd28;strokeColor=#d79b00;gradientColor=#ffa500;fontSize=13;glass=0;sketch=0;shadow=1;" vertex="1" parent="1">
          <mxGeometry x="120" y="526" width="450" height="70" as="geometry" />
        </mxCell>
        <mxCell id="I7xxhmBDHfEutQesb7iw-3" value="Data Models / Back-office system" style="rounded=1;whiteSpace=wrap;html=1;fontSize=13;fillColor=#d5e8d4;gradientColor=#97d077;strokeColor=#82b366;shadow=1;" vertex="1" parent="1">
          <mxGeometry x="120" y="636" width="600" height="70" as="geometry" />
        </mxCell>
        <mxCell id="I7xxhmBDHfEutQesb7iw-4" value="" style="endArrow=none;html=1;rounded=0;strokeWidth=2;fontSize=13;shadow=1;" edge="1" parent="1">
          <mxGeometry width="50" height="50" relative="1" as="geometry">
            <mxPoint x="120" y="620" as="sourcePoint" />
            <mxPoint x="720" y="620" as="targetPoint" />
          </mxGeometry>
        </mxCell>
        <mxCell id="I7xxhmBDHfEutQesb7iw-5" value="Content Authoring Platform" style="rounded=1;whiteSpace=wrap;html=1;fontSize=13;shadow=1;fillColor=#f8cecc;strokeColor=#b85450;gradientColor=#ea6b66;" vertex="1" parent="1">
          <mxGeometry x="350" y="292" width="370" height="70" as="geometry" />
        </mxCell>
        <mxCell id="I7xxhmBDHfEutQesb7iw-6" value="Business Data" style="rounded=1;whiteSpace=wrap;html=1;fillColor=#dae8fc;gradientColor=#7ea6e0;strokeColor=#6c8ebf;glass=0;fontSize=13;sketch=0;shadow=1;" vertex="1" parent="1">
          <mxGeometry x="120" y="407" width="280" height="70" as="geometry" />
        </mxCell>
        <mxCell id="I7xxhmBDHfEutQesb7iw-7" value="Analytics" style="rounded=1;whiteSpace=wrap;html=1;fillColor=#e3c800;fontColor=#000000;strokeColor=#B09500;fontSize=13;shadow=1;" vertex="1" parent="1">
          <mxGeometry x="424" y="407" width="90" height="70" as="geometry" />
        </mxCell>
        <mxCell id="I7xxhmBDHfEutQesb7iw-8" value="Marketing Campaign" style="rounded=1;whiteSpace=wrap;html=1;fillColor=#f0a30a;fontColor=#000000;strokeColor=#BD7000;fontSize=13;shadow=1;" vertex="1" parent="1">
          <mxGeometry x="528" y="407" width="90" height="70" as="geometry" />
        </mxCell>
        <mxCell id="I7xxhmBDHfEutQesb7iw-9" value="Sitecore Core" style="rounded=1;whiteSpace=wrap;html=1;fillColor=#fff2cc;strokeColor=#d6b656;fontSize=13;shadow=1;gradientColor=#ffd966;" vertex="1" parent="1">
          <mxGeometry x="630" y="407" width="90" height="70" as="geometry" />
        </mxCell>
        <mxCell id="I7xxhmBDHfEutQesb7iw-10" value="Web API (headless)" style="rounded=1;whiteSpace=wrap;html=1;fontSize=13;shadow=1;fillColor=#ffcd28;strokeColor=#d79b00;gradientColor=#ffa500;" vertex="1" parent="1">
          <mxGeometry x="120" y="188" width="600" height="70" as="geometry" />
        </mxCell>
        <mxCell id="I7xxhmBDHfEutQesb7iw-11" value="Business Logic" style="rounded=1;whiteSpace=wrap;html=1;fontSize=13;shadow=1;fillColor=#d5e8d4;strokeColor=#82b366;gradientColor=#97d077;" vertex="1" parent="1">
          <mxGeometry x="120" y="292" width="220" height="70" as="geometry" />
        </mxCell>
        <mxCell id="I7xxhmBDHfEutQesb7iw-12" value="Message Broker" style="rounded=1;whiteSpace=wrap;html=1;fillColor=#f0a30a;fontColor=#000000;strokeColor=#BD7000;fontSize=13;shadow=1;" vertex="1" parent="1">
          <mxGeometry x="590" y="526" width="130" height="70" as="geometry" />
        </mxCell>
        <mxCell id="I7xxhmBDHfEutQesb7iw-13" value="" style="endArrow=none;html=1;rounded=0;strokeWidth=2;fontSize=13;shadow=1;" edge="1" parent="1">
          <mxGeometry width="50" height="50" relative="1" as="geometry">
            <mxPoint x="120" y="500" as="sourcePoint" />
            <mxPoint x="720" y="500" as="targetPoint" />
          </mxGeometry>
        </mxCell>
        <mxCell id="I7xxhmBDHfEutQesb7iw-14" value="" style="endArrow=none;html=1;rounded=0;strokeWidth=2;fontSize=13;shadow=1;" edge="1" parent="1">
          <mxGeometry width="50" height="50" relative="1" as="geometry">
            <mxPoint x="120" y="390" as="sourcePoint" />
            <mxPoint x="720" y="390" as="targetPoint" />
          </mxGeometry>
        </mxCell>
        <mxCell id="I7xxhmBDHfEutQesb7iw-15" value="" style="endArrow=none;html=1;rounded=0;strokeWidth=2;fontSize=13;shadow=1;" edge="1" parent="1">
          <mxGeometry width="50" height="50" relative="1" as="geometry">
            <mxPoint x="120" y="160" as="sourcePoint" />
            <mxPoint x="720" y="160" as="targetPoint" />
          </mxGeometry>
        </mxCell>
        <mxCell id="I7xxhmBDHfEutQesb7iw-16" value="Mobile Frontend" style="rounded=1;whiteSpace=wrap;html=1;fillColor=#b0e3e6;strokeColor=#0e8088;strokeWidth=2;fontSize=13;shadow=1;" vertex="1" parent="1">
          <mxGeometry x="590" y="55" width="130" height="70" as="geometry" />
        </mxCell>
      </root>
    </mxGraphModel>
  </diagram>
</mxfile>
